<svg
	xmlns="http://www.w3.org/2000/svg"
	fill="transparent"
	stroke="#000"
	stroke-width="3"
	class="item__svg"
	viewBox="0 0 508 508"
>
	<path
		d="M330 188l-3-1h-45v-20c0-11 7-12 9-12h34c3 0 4-2 4-4V98c0-2-1-4-4-4h-48c-52 0-71 36-71 69v24h-23c-3 0-4 1-4 4v63c0 2 1 4 4 4h27v151c0 2 2 4 4 4h60c2 0 4-2 4-4V258h43c2 0 4-2 4-4l6-63z"
	/>
	<path
		d="M500 379c0 67-54 121-121 121H129C62 500 8 446 8 379V129C8 62 62 8 129 8h250c67 0 121 54 121 121z"
	/>
	<path
		d="M476 138.52593V370c0 58-48 106-106 106H138c-58 0-106-48-106-106V138C32 80 80 32 138 32h231c72.57975-.0026 107.54254 50.852826 107 106.52593z"
	/>
</svg>
