{
  "title": "celaskon",
  "props": {
    "company": "ShopUp",
    "date": 2019,
    "influence": "large",
    "technology": ["Nette", "jQuery", "Gulp"]
  },
  "hide": false,
  "content": {
    "image": "../../../../static/cms/media/celaskon.jpg",
    "title": "Celaskon",
    "body": "",
    "links": [
      {
        "href": "http://celaskon.cz/",
        "label": "www"
      }
    ]
  }
}
