{
  "title": "Kontakt - CS",
  "lang": "cs",
  "id": "help",
  "headline": "",
  "form": {
    "fieldset": [
      {
        "headline": "",
        "id": "main-fieldset",
        "input": [
          {
            "field": "input",
            "options": [
              {
                "label": "",
                "value": "",
                "disabled": false
              }
            ],
            "type": "email",
            "required": true,
            "validation": "email",
            "initialValue": "",
            "name": "email",
            "label": "E-mail",
            "placeholder": "",
            "requiredMessage": "Zadejte prosím email.",
            "validationMessage": "Špatně vyplněný e-mail.",
            "value": "",
            "visualStyle": ""
          },
          {
            "field": "textarea",
            "options": [
              {
                "label": "",
                "value": "",
                "disabled": false
              }
            ],
            "type": "textarea",
            "required": true,
            "validation": "",
            "initialValue": "",
            "name": "message",
            "label": "Zpráva",
            "placeholder": "",
            "requiredMessage": "Zde napište svoji zprávu.",
            "validationMessage": "",
            "value": "",
            "visualStyle": ""
          }
        ]
      }
    ],
    "submit": {
      "label": "Odeslat",
      "success": "Zpráva odeslána.",
      "error": "Něco se pokazilo, zkuste to znovu.",
      "submitting": "Odesílám...",
      "reCaptchaError": "Opravdu jste robot? Nemyslím si. Zaškrtněte prosím box výše."
    },
    "renderError": {
      "errorHeadline": "Hups, nepovedlo se nám zobrazit kontaktní formulář.",
      "errorParagraph": ""
    }
  }
}
