<svg xmlns="http://www.w3.org/2000/svg" viewBox=".3 21 99.6 58">
	<defs />
	<path
		fill="none"
		stroke="#777"
		stroke-linejoin="round"
		stroke-miterlimit="10"
		stroke-width="2.13"
		d="M93.786 22.178H6.112c-2.712 0-4.878 1.933-4.882 4.348v48.962h97.574V26.526c-.136-2.415-2.306-4.347-5.018-4.347z"
		transform="matrix(1 0 0 1.00192 0 -.15)"
	/>
	<path
		fill="#ccc"
		stroke="#ccc"
		stroke-miterlimit="10"
		stroke-width="1.663"
		d="M83.712 70.292H16.37c-1.3 0-2.3.014-2.3-.779V69.5h71.942v.013c0 .862-1 .779-2.3.779z"
		transform="matrix(1.35633 0 0 1.35807 -17.854 -17.772)"
	/>
	<path
		fill="#777"
		d="M61.491 77.127H38.434c-.95 0-1.628-.68-1.628-1.63v-.815h26.448v.816c-.135.95-.813 1.629-1.763 1.629z"
	/>
	<path
		fill="none"
		stroke="#777"
		stroke-miterlimit="10"
		stroke-width="1.201"
		d="M82.698 69.831h.3-4.9"
		transform="matrix(1.35633 0 0 1.35807 -17.854 -17.772)"
	/>
</svg>
